Shortest stalemate moves
http://www.chess.com/forum/view/fun-with-chess/fastest-stalemate

c2,c4
h7,h5
h2,h4
a7,a5

d1,a4
a8,a6
a4,a5
a6,h6

a5,c7
f7,f6
c7,d7
e8,f7

d7,b7
d8,d3
b7,b8
d3,h7

b8,c8
f7,g6
c8,e6